{
  "IcoMoonType": "selection",
  "icons": [
    {
      "icon": {
        "paths": [
          "M563.2 512l-160.819-175.104c-13.722-13.824-13.722-36.198 0-50.074 13.722-13.824 35.891-13.824 49.613 0l196.096 200.090c13.722 13.875 13.722 36.301 0 50.125l-196.096 200.090c-13.67 13.926-35.891 13.824-49.613 0-13.722-13.773-13.722-36.198 0-50.074l160.819-175.053z"
        ],
        "attrs": [
          {}
        ],
        "isMulticolor": false,
        "isMulticolor2": false,
        "tags": [
          "chevron-small-right"
        ],
        "grid": 20
      },
      "attrs": [
        {}
      ],
      "properties": {
        "order": 1,
        "id": 1,
        "prevSize": 20,
        "code": 59670,
        "name": "chevron-small-right"
      },
      "setIdx": 0,
      "setId": 2,
      "iconIdx": 0
    },
    {
      "icon": {
        "paths": [
          "M621.619 687.002c13.722 13.875 13.722 36.301 0 50.074-13.722 13.824-35.891 13.926-49.613 0l-196.096-200.090c-13.722-13.824-13.722-36.198 0-50.125l196.096-200.090c13.67-13.824 35.891-13.824 49.613 0 13.722 13.875 13.722 36.301 0 50.074l-160.819 175.155 160.819 175.002z"
        ],
        "attrs": [
          {}
        ],
        "isMulticolor": false,
        "isMulticolor2": false,
        "tags": [
          "chevron-small-left"
        ],
        "grid": 20
      },
      "attrs": [
        {}
      ],
      "properties": {
        "order": 2,
        "id": 0,
        "prevSize": 20,
        "code": 59671,
        "name": "chevron-small-left"
      },
      "setIdx": 0,
      "setId": 2,
      "iconIdx": 1
    },
    {
      "icon": {
        "paths": [
          "M687.002 402.381c13.875-13.722 36.301-13.722 50.074 0 13.824 13.722 13.926 35.891 0 49.613l-200.090 196.096c-13.824 13.722-36.198 13.722-50.125 0l-200.090-196.096c-13.824-13.67-13.824-35.891 0-49.613 13.875-13.722 36.301-13.722 50.074 0l175.155 160.819 175.002-160.819z"
        ],
        "attrs": [
          {}
        ],
        "isMulticolor": false,
        "isMulticolor2": false,
        "tags": [
          "chevron-small-down"
        ],
        "grid": 20
      },
      "attrs": [
        {}
      ],
      "properties": {
        "order": 1,
        "id": 4,
        "name": "chevron-small-down",
        "prevSize": 20,
        "code": 59650
      },
      "setIdx": 1,
      "setId": 1,
      "iconIdx": 18
    },
    {
      "icon": {
        "paths": [
          "M737.28 460.8h-296.96c-28.262 0-30.72 22.886-30.72 51.2s2.458 51.2 30.72 51.2h296.96c28.262 0 30.72-22.886 30.72-51.2s-2.458-51.2-30.72-51.2zM839.68 716.8h-399.36c-28.262 0-30.72 22.886-30.72 51.2s2.458 51.2 30.72 51.2h399.36c28.262 0 30.72-22.886 30.72-51.2s-2.458-51.2-30.72-51.2zM440.32 307.2h399.36c28.262 0 30.72-22.886 30.72-51.2s-2.458-51.2-30.72-51.2h-399.36c-28.262 0-30.72 22.886-30.72 51.2s2.458 51.2 30.72 51.2zM276.48 460.8h-92.16c-28.262 0-30.72 22.886-30.72 51.2s2.458 51.2 30.72 51.2h92.16c28.262 0 30.72-22.886 30.72-51.2s-2.458-51.2-30.72-51.2zM276.48 716.8h-92.16c-28.262 0-30.72 22.886-30.72 51.2s2.458 51.2 30.72 51.2h92.16c28.262 0 30.72-22.886 30.72-51.2s-2.458-51.2-30.72-51.2zM276.48 204.8h-92.16c-28.262 0-30.72 22.886-30.72 51.2s2.458 51.2 30.72 51.2h92.16c28.262 0 30.72-22.886 30.72-51.2s-2.458-51.2-30.72-51.2z"
        ],
        "attrs": [
          {}
        ],
        "isMulticolor": false,
        "isMulticolor2": false,
        "tags": [
          "list"
        ],
        "grid": 20
      },
      "attrs": [
        {}
      ],
      "properties": {
        "order": 1,
        "id": 3,
        "name": "list",
        "prevSize": 20,
        "code": 59651
      },
      "setIdx": 1,
      "setId": 1,
      "iconIdx": 19
    },
    {
      "icon": {
        "paths": [
          "M409.6 204.8h-153.6c-28.314 0-51.2 22.886-51.2 51.2v153.6c0 28.262 22.886 51.2 51.2 51.2h153.6c28.314 0 51.2-22.938 51.2-51.2v-153.6c0-28.262-22.886-51.2-51.2-51.2zM768 204.8h-153.6c-28.314 0-51.2 22.886-51.2 51.2v153.6c0 28.262 22.886 51.2 51.2 51.2h153.6c28.314 0 51.2-22.938 51.2-51.2v-153.6c0-28.262-22.886-51.2-51.2-51.2zM409.6 563.2h-153.6c-28.314 0-51.2 22.886-51.2 51.2v153.6c0 28.262 22.886 51.2 51.2 51.2h153.6c28.314 0 51.2-22.938 51.2-51.2v-153.6c0-28.262-22.886-51.2-51.2-51.2zM768 563.2h-153.6c-28.314 0-51.2 22.886-51.2 51.2v153.6c0 28.262 22.886 51.2 51.2 51.2h153.6c28.314 0 51.2-22.938 51.2-51.2v-153.6c0-28.262-22.886-51.2-51.2-51.2z"
        ],
        "attrs": [
          {}
        ],
        "isMulticolor": false,
        "isMulticolor2": false,
        "tags": [
          "grid"
        ],
        "grid": 20
      },
      "attrs": [
        {}
      ],
      "properties": {
        "order": 1,
        "id": 2,
        "name": "grid",
        "prevSize": 20,
        "code": 59652
      },
      "setIdx": 1,
      "setId": 1,
      "iconIdx": 20
    },
    {
      "icon": {
        "paths": [
          "M972.799 153.6h-921.599c-29.014 0-51.199 22.186-51.199 51.199v341.333c0 29.014 22.186 51.199 51.199 51.199h921.599c29.014 0 51.199-22.186 51.199-51.199v-341.333c0.002-29.014-22.186-51.199-51.199-51.199zM989.866 546.133c0 10.24-6.826 17.066-17.066 17.066h-921.601c-10.24 0-17.066-6.826-17.066-17.066v-341.333c0-10.24 8.534-17.066 17.066-17.066h921.599c10.24 0 17.066 6.826 17.066 17.066v341.333z",
          "M443.732 307.2h136.534c10.24 0 17.066-6.826 17.066-17.066s-6.826-17.066-17.066-17.066h-136.534c-10.24 0-17.066 6.826-17.066 17.066s6.826 17.066 17.066 17.066z",
          "M938.665 494.933h-853.332c-10.24 0-17.066 6.826-17.066 17.066s6.826 17.066 17.066 17.066h853.332c10.24 0 17.066-6.826 17.066-17.066s-6.826-17.066-17.066-17.066z",
          "M938.665 426.666h-853.332c-10.24 0-17.066 6.826-17.066 17.066s6.826 17.066 17.066 17.066h853.332c10.24 0 17.066-6.826 17.066-17.066s-6.826-17.066-17.066-17.066z",
          "M520.533 718.506c-17.066-8.534-25.6-18.774-25.6-27.308s10.24-18.774 23.894-29.014c8.534-3.414 10.24-13.654 6.826-22.186-3.414-8.534-13.654-11.946-22.186-6.826-27.308 15.36-42.667 35.84-42.667 58.027 0 22.186 15.36 42.667 42.667 59.733 17.066 8.534 25.6 18.774 25.6 27.308s-10.24 18.774-25.6 27.306c-8.534 3.414-11.946 13.654-6.826 22.186 3.414 5.12 8.534 8.534 15.36 8.534 3.414 0 5.12 0 8.534-1.706 27.308-15.36 42.667-35.84 42.667-58.027s-15.362-44.373-42.669-58.027z",
          "M332.799 752.64c-17.066-8.534-25.6-18.774-25.6-27.308s10.24-18.774 23.894-29.014c8.534-3.414 11.946-13.654 6.826-22.186-3.414-8.534-13.654-11.946-22.186-6.826-27.308 15.36-42.667 35.84-42.667 58.027 0 22.186 15.36 42.667 42.667 59.733 17.066 8.534 25.6 18.774 25.6 27.308s-10.24 18.774-25.6 27.308c-8.534 3.414-11.946 13.654-6.826 22.186 3.414 5.12 8.534 8.534 15.36 8.534 3.414 0 5.12 0 8.534-1.706 27.308-15.36 42.667-35.84 42.667-58.027s-15.362-44.375-42.669-58.029z",
          "M708.266 752.64c-17.066-8.534-25.6-18.774-25.6-27.308s10.24-18.774 23.894-29.014c8.534-3.414 10.24-13.654 6.826-22.186-3.414-8.534-13.654-11.946-22.186-6.826-27.308 15.36-42.667 35.84-42.667 58.027 0 22.186 15.36 42.667 42.667 59.733 17.066 8.534 25.6 18.774 25.6 27.308s-10.24 18.774-25.6 27.308c-8.534 3.414-11.946 13.654-6.826 22.186 3.414 5.12 8.534 8.534 15.36 8.534 3.414 0 5.12 0 8.534-1.706 27.308-15.36 42.667-35.84 42.667-58.027s-15.364-44.375-42.669-58.029z"
        ],
        "attrs": [
          {},
          {},
          {},
          {},
          {},
          {},
          {}
        ],
        "isMulticolor": false,
        "isMulticolor2": false,
        "grid": 0,
        "tags": [
          "air-conditioner"
        ]
      },
      "attrs": [
        {},
        {},
        {},
        {},
        {},
        {},
        {}
      ],
      "properties": {
        "order": 25,
        "id": 13,
        "name": "air-conditioner",
        "prevSize": 32,
        "code": 59656
      },
      "setIdx": 1,
      "setId": 1,
      "iconIdx": 0
    },
    {
      "icon": {
        "paths": [
          "M160.236 0v976.002h64v47.998h31.998v-47.998h512.002v47.998h31.998v-47.998h63.528v-976.002h-703.526zM831.766 944h-639.528v-912h639.53l-0.002 912z",
          "M512.238 816.002c132.336 0 240-107.664 240-240.002s-107.664-240-240-240-240 107.664-240 240.002 107.664 240 240 240zM512.238 368.002c114.692 0 208 93.308 208 208s-93.31 207.998-208 207.998-208.002-93.308-208.002-207.998 93.31-208 208.002-208z",
          "M512.238 752.002c97.046 0 175.998-78.954 175.998-176 0-97.048-78.952-176.002-175.998-176.002-97.048 0-176 78.954-176 176.002-0 97.046 78.954 176 176 176zM512.238 432c79.4 0 144 64.598 144 144 0 79.4-64.598 143.998-144 143.998s-144-64.598-144-143.998c-0-79.404 64.596-144 144-144z",
          "M208.234 880.002h608.006v32h-608.006v-32z",
          "M459.588 603.304l-22.627-22.627 79.993-79.993 22.627 22.627-79.993 79.993z",
          "M516.934 596.695l31.999-31.999 22.627 22.627-31.999 31.999-22.627-22.627z",
          "M208.234 224.006h608.006v32h-608.006v-32z",
          "M224.238 64h31.998v32h-31.998v-32z",
          "M224.238 112h31.998v32h-31.998v-32z",
          "M224.238 159.992h31.998v32h-31.998v-32z",
          "M272.248 64h128.006v32h-128.006v-32z",
          "M272.248 112h128.006v32h-128.006v-32z",
          "M272.248 159.992h128.006v32h-128.006v-32z",
          "M800.238 64h-192v128.002h192v-128.002zM768.238 160h-128v-64h128v64z",
          "M560.248 64h32v32h-32v-32z",
          "M560.248 112h32v32h-32v-32z",
          "M560.248 159.992h32v32h-32v-32z",
          "M480.236 192.002c26.468 0 48-21.534 48-48 0-20.858-13.378-38.644-32-45.25v-34.752h-31.998v34.754c-18.622 6.606-31.998 24.39-31.998 45.25 0 26.464 21.53 47.998 47.996 47.998zM480.236 128c8.822 0 16.002 7.176 16.002 16.002 0 8.82-7.178 16-16.002 16s-16-7.176-16-16c0.002-8.824 7.178-16.002 16-16.002z",
          "M224.238 288h31.998v32h-31.998v-32z",
          "M272.248 288h31.998v32h-31.998v-32z",
          "M320.238 288h32v32h-32v-32z"
        ],
        "attrs": [
          {},
          {},
          {},
          {},
          {},
          {},
          {},
          {},
          {},
          {},
          {},
          {},
          {},
          {},
          {},
          {},
          {},
          {},
          {},
          {},
          {}
        ],
        "isMulticolor": false,
        "isMulticolor2": false,
        "grid": 0,
        "tags": [
          "washing-machine"
        ]
      },
      "attrs": [
        {},
        {},
        {},
        {},
        {},
        {},
        {},
        {},
        {},
        {},
        {},
        {},
        {},
        {},
        {},
        {},
        {},
        {},
        {},
        {},
        {}
      ],
      "properties": {
        "order": 26,
        "id": 12,
        "name": "washing-machine",
        "prevSize": 32,
        "code": 59657
      },
      "setIdx": 1,
      "setId": 1,
      "iconIdx": 1
    },
    {
      "icon": {
        "paths": [
          "M231.874 224.090h192.074v31.554h-192.074v-31.554z",
          "M424.19 47.792h31.554v-47.792h-175.848v31.554h144.294z",
          "M152.070 1024h351.696v-751.876h-351.696v751.876zM183.622 303.676h288.59v400.64h-288.59v-400.64zM183.622 735.868h288.59v128.52h-288.59v-128.52zM183.622 895.942h288.59v96.504h-288.59v-96.504z",
          "M312.14 47.792v128.288h-16.238v31.552h64.030v-31.552h-16.238v-128.288z",
          "M215.866 768.342h224.090v31.554h-224.090v-31.554z",
          "M279.898 816.366h96.044v31.554h-96.044v-31.554z",
          "M600.27 256.116v767.884h271.66v-767.884h-271.66zM840.378 992.446h-208.554v-438.968l208.554-111.228v550.196zM840.378 406.494l-208.554 111.224v-230.050h208.554v118.826z",
          "M664.068 320.138h48.022v31.554h-48.022v-31.554z",
          "M664.068 736.326h144.072v31.554h-144.072v-31.554z",
          "M664.068 784.35h144.072v31.554h-144.072v-31.554z",
          "M696.084 832.374h80.040v31.554h-80.040v-31.554z"
        ],
        "attrs": [
          {},
          {},
          {},
          {},
          {},
          {},
          {},
          {},
          {},
          {},
          {}
        ],
        "isMulticolor": false,
        "isMulticolor2": false,
        "grid": 0,
        "tags": [
          "gel"
        ]
      },
      "attrs": [
        {},
        {},
        {},
        {},
        {},
        {},
        {},
        {},
        {},
        {},
        {}
      ],
      "properties": {
        "order": 27,
        "id": 11,
        "name": "gel",
        "prevSize": 32,
        "code": 59658
      },
      "setIdx": 1,
      "setId": 1,
      "iconIdx": 2
    },
    {
      "icon": {
        "paths": [
          "M1003.602 820.016h-109.132v-379.41h50.996v252.94c0 11.266 9.134 20.398 20.398 20.398s20.398-9.132 20.398-20.398v-252.94h17.338c11.264 0 20.398-9.132 20.398-20.398s-9.134-20.398-20.398-20.398h-199.904v-295.778c0-11.266-9.134-20.398-20.398-20.398h-542.596c-11.264 0-20.398 9.132-20.398 20.398v295.776h-199.906c-11.264 0-20.398 9.134-20.398 20.4s9.134 20.398 20.398 20.398h17.338v379.41h-17.338c-11.264-0-20.398 9.132-20.398 20.398v79.554c0 11.266 9.134 20.398 20.398 20.398h983.204c11.264 0 20.398-9.132 20.398-20.398v-79.554c0-11.266-9.134-20.398-20.398-20.398zM803.698 440.606h49.976v379.41h-49.976v-379.41zM261.1 124.43h501.8v275.378h-49.082v-201.944c0-11.266-9.134-20.398-20.398-20.398h-362.84c-11.264 0-20.398 9.132-20.398 20.398v201.944h-49.082v-275.378zM762.9 440.606v379.41h-49.082v-379.41h49.082zM531.378 399.808v-181.546h141.642v181.546h-141.642zM673.020 440.606v379.41h-49.85v-379.41h49.85zM582.374 440.606v379.41h-50.996v-379.41h50.996zM350.98 399.808v-181.546h139.602v181.546h-139.602zM490.582 440.606v379.41h-48.956v-379.41h48.956zM400.828 440.606v379.41h-49.848v-379.41h49.848zM261.1 440.606h49.082v379.41h-49.082v-379.41zM168.286 440.606h52.016v379.41h-52.016v-379.41zM78.534 440.606h48.956v379.41h-48.956v-379.41zM983.204 899.57h-942.408v-38.756h942.406v38.756z",
          "M965.864 738.422c-11.264 0-20.398 9.132-20.398 20.398v14.278c0 11.266 9.134 20.398 20.398 20.398s20.398-9.132 20.398-20.398v-14.278c-0-11.266-9.134-20.398-20.398-20.398z"
        ],
        "attrs": [
          {},
          {}
        ],
        "isMulticolor": false,
        "isMulticolor2": false,
        "grid": 0,
        "tags": [
          "balcony"
        ]
      },
      "attrs": [
        {},
        {}
      ],
      "properties": {
        "order": 28,
        "id": 10,
        "name": "balcony",
        "prevSize": 32,
        "code": 59659
      },
      "setIdx": 1,
      "setId": 1,
      "iconIdx": 3
    },
    {
      "icon": {
        "paths": [
          "M1024 441.176c0-179.518-146.048-325.566-325.566-325.566s-325.564 146.048-325.564 325.566c0 24.47 2.728 48.728 8.106 72.392l-25.254 3.73c-24.112 3.562-47.374 9.934-69.436 18.774l-34.608-54.082c-6.056-9.464-18.628-12.248-28.116-6.226l-65.064 41.316c-9.446 5.998-12.298 18.488-6.388 27.99l34.668 55.75c-26.004 25.354-47.668 55.484-63.582 89.428l-51.256 109.316-66.764 74.85c-5.35 6-6.678 14.582-3.392 21.918 3.286 7.338 10.576 12.058 18.616 12.058h983.204c11.266 0 20.398-9.132 20.398-20.398v-445.774c0-0.060-0.008-0.116-0.010-0.176l0.008-0.866zM698.436 156.406c151.436 0 275.642 118.81 284.286 268.276l-56.766 8.386c-4.282-121.794-104.698-219.554-227.522-219.554-125.534 0-227.662 102.128-227.662 227.662 0 19.75 2.506 39.178 7.47 58.024l-56.782 8.388c-5.18-21.668-7.796-43.934-7.796-66.412 0.002-157.022 127.748-284.77 284.772-284.77zM601.448 402.126c-5.376 0.776-10.22 3.664-13.458 8.024-3.238 4.362-4.604 9.832-3.794 15.204l8.578 56.932-73.842 10.908c-4.876-16.826-7.36-34.256-7.36-52.014 0-103.038 83.828-186.866 186.866-186.866 102.336 0 185.71 82.694 186.84 184.766l-74.456 10.994-8.51-56.49c-1.67-11.092-11.98-18.766-23.086-17.148l-177.778 25.69zM770.458 456.038l-137.33 20.284-5.538-36.754 137.396-19.854 5.472 36.324zM228.268 521.102l20.966 32.764c-10.764 6.104-21.132 12.854-31.058 20.2l-20.754-33.378 30.846-19.586zM983.204 867.594h-917.278l32.354-36.276h884.924v36.276zM983.204 790.52h-861.97l38.896-82.952c37.896-80.824 113.244-136.866 201.554-149.91l621.52-91.806v324.668z",
          "M920.28 719.696h-31.246c-11.266 0-20.398 9.132-20.398 20.398s9.132 20.398 20.398 20.398h31.246c11.266 0 20.398-9.132 20.398-20.398 0-11.264-9.134-20.398-20.398-20.398z",
          "M795.298 719.696h-531.18c-11.266 0-20.398 9.132-20.398 20.398s9.132 20.398 20.398 20.398h531.178c11.266 0 20.398-9.132 20.398-20.398-0-11.264-9.132-20.398-20.396-20.398z"
        ],
        "attrs": [
          {},
          {},
          {}
        ],
        "isMulticolor": false,
        "isMulticolor2": false,
        "grid": 0,
        "tags": [
          "iron"
        ]
      },
      "attrs": [
        {},
        {},
        {}
      ],
      "properties": {
        "order": 29,
        "id": 9,
        "name": "iron",
        "prevSize": 32,
        "code": 59660
      },
      "setIdx": 1,
      "setId": 1,
      "iconIdx": 4
    },
    {
      "icon": {
        "paths": [
          "M955.734 153.6c-31.66 0-58.464 21.842-66.092 51.2h-36.308v-34.134c0-39.254-29.014-68.266-68.266-68.266h-546.134c-37.546 0-68.266 25.6-68.266 58.026v44.374h-36.31c-7.628-29.358-34.432-51.2-66.092-51.2-37.546-0-68.266 30.72-68.266 68.266s30.72 68.266 68.266 68.266c31.658 0 58.464-21.842 66.092-51.2h36.308v631.468c0 29.014 22.186 51.2 51.2 51.2h477.866c29.014 0 51.2-22.186 51.2-51.2v-17.066h51.2c29.014 0 51.2-22.186 51.2-51.2v-563.2h36.308c7.628 29.358 34.432 51.2 66.092 51.2 37.546 0 68.266-30.72 68.266-68.266 0.002-37.548-30.718-68.268-68.264-68.268zM68.266 256c-18.774 0-34.134-15.36-34.134-34.134s15.36-34.134 34.134-34.134c18.774 0 34.134 15.36 34.134 34.134s-15.36 34.134-34.134 34.134zM819.2 170.666v34.134h-68.266v-34.134c0-13.654 15.36-34.134 34.134-34.134 20.478 0.002 34.132 13.654 34.132 34.134zM204.8 160.426c0-13.654 15.36-23.894 34.134-23.894h488.106c-6.2 9.302-9.554 20.012-10.122 30.85-0.072 1.1-0.118 2.196-0.118 3.282v580.266h-512v-590.504zM716.8 870.4c0 10.24-6.826 17.066-17.066 17.066h-477.868c-10.24 0-17.066-6.826-17.066-17.066v-85.334h512v85.334zM819.2 802.134c0 10.24-6.826 17.066-17.066 17.066h-51.2v-580.266h68.266v563.2zM955.734 256c-18.774 0-34.134-15.36-34.134-34.134s15.36-34.134 34.134-34.134 34.134 15.36 34.134 34.134c-0.002 18.774-15.362 34.134-34.134 34.134z"
        ],
        "attrs": [
          {}
        ],
        "isMulticolor": false,
        "isMulticolor2": false,
        "grid": 0,
        "tags": [
          "towel"
        ]
      },
      "attrs": [
        {}
      ],
      "properties": {
        "order": 30,
        "id": 8,
        "name": "towel2",
        "prevSize": 32,
        "code": 59661
      },
      "setIdx": 1,
      "setId": 1,
      "iconIdx": 5
    },
    {
      "icon": {
        "paths": [
          "M857.833 188.073h-694.674v-119.325c0-8.993 10.828-16.303 24.202-16.303h646.254c13.373 0 24.249 7.296 24.249 16.303v119.325h-0.031zM885.833 0h-747.649c-15.492 0-28.015 12.96-28.015 28.945v212.166h803.663v-212.166c-0-15.985-12.499-28.945-27.999-28.945v0z",
          "M859.989 939.628c0 12.454-10.842 22.529-24.295 22.529h-647.691c-13.423 0-24.289-10.076-24.289-22.529v-593.077h696.276v593.077h-0.002zM110.169 292.569v704.65c0 14.796 12.523 26.781 28.015 26.781h747.649c15.498 0 27.999-11.985 27.999-26.781v-704.65h-803.663z",
          "M510.634 829.96c-97.465 0-177.901-72.81-189.768-167.010 0 0 53.007 72.935 118.026 2.312 24.657 50.436 101.982 61.655 141.231-2.249 33.654 45.967 120.808-4.719 120.808-4.719-9.778 96.466-91.262 171.667-190.296 171.667v0zM510.891 423.589c-125.152 0-226.618 101.435-226.618 226.565 0 125.167 101.451 226.586 226.618 226.586 125.105 0 226.571-101.419 226.571-226.586-0.002-125.13-101.466-226.565-226.571-226.565v0z",
          "M258.047 80.365c22.194 0 40.194 18 40.194 40.195 0 22.187-18 40.187-40.194 40.187-22.187 0-40.187-18-40.187-40.187 0.002-22.211 18.002-40.195 40.187-40.195v0z",
          "M390.746 80.365c22.21 0 40.195 18 40.195 40.195 0 22.187-18 40.187-40.195 40.187-22.187 0-40.186-18-40.186-40.187 0-22.211 18-40.195 40.186-40.195v0z"
        ],
        "attrs": [
          {},
          {},
          {},
          {},
          {}
        ],
        "isMulticolor": false,
        "isMulticolor2": false,
        "grid": 0,
        "tags": [
          "washing-machine"
        ]
      },
      "attrs": [
        {},
        {},
        {},
        {},
        {}
      ],
      "properties": {
        "order": 31,
        "id": 7,
        "name": "washing-machine2",
        "prevSize": 32,
        "code": 59662
      },
      "setIdx": 1,
      "setId": 1,
      "iconIdx": 6
    },
    {
      "icon": {
        "paths": [
          "M827.938 918.728c0 30.839-27.753 55.847-61.929 55.847h-507.118c-34.223 0-61.982-25.025-61.982-55.847v-477.29h631.013v477.292h0.016zM147.392 392.853v565.019c0 36.543 32.092 66.128 71.612 66.128h586.009c39.518 0 71.61-29.585 71.61-66.128v-565.019h-729.23z",
          "M828.956 291.719h-633.912v-187.772c0-29.907 27.893-54.156 62.264-54.156h509.374c34.381 0 62.274 24.25 62.274 54.156v187.772zM804.982 0h-585.994c-39.535 0-71.612 34.389-71.612 76.799v266.311h729.216v-266.327c0-42.41-32.092-76.783-71.61-76.783v0z",
          "M317.959 223.203c0 12.403-11.119 22.432-24.852 22.432v0c-13.703 0-24.836-10.029-24.836-22.432v-100.655c0-12.388 11.102-22.416 24.836-22.416v0c13.719 0 24.852 10.029 24.852 22.416v100.655z",
          "M317.959 678.383c0 16.375-11.119 29.741-24.852 29.741v0c-13.703 0-24.836-13.32-24.836-29.741v-133.257c0-16.391 11.102-29.725 24.836-29.725v0c13.719 0 24.852 13.304 24.852 29.725v133.257z"
        ],
        "attrs": [
          {},
          {},
          {},
          {}
        ],
        "isMulticolor": false,
        "isMulticolor2": false,
        "grid": 0,
        "tags": [
          "refrigerator"
        ]
      },
      "attrs": [
        {},
        {},
        {},
        {}
      ],
      "properties": {
        "order": 32,
        "id": 6,
        "name": "refrigerator",
        "prevSize": 32,
        "code": 59663
      },
      "setIdx": 1,
      "setId": 1,
      "iconIdx": 7
    },
    {
      "icon": {
        "paths": [
          "M955.733 238.715h-412.498l120.658-194.559c5.12-8.534 3.414-18.774-5.12-23.894s-18.774-3.414-23.894 5.12l-123.122 198.534-139.704-200.242c-5.12-6.826-15.36-8.534-23.894-3.414-6.826 5.12-8.534 15.36-3.414 23.894l135.739 194.559h-412.217c-37.548 0.002-68.267 30.722-68.267 68.269v580.266c0 37.548 30.72 68.267 68.267 68.267h17.066v34.134c0 10.24 6.826 17.066 17.066 17.066s17.066-6.826 17.066-17.066v-34.134h785.065v34.134c0 10.24 6.826 17.066 17.066 17.066s17.066-6.826 17.066-17.066v-34.134h17.066c37.548 0 68.267-30.72 68.267-68.267v-580.266c0.006-37.548-30.716-68.267-68.261-68.267zM989.866 887.248c0 18.774-15.36 34.134-34.134 34.134h-887.466c-18.774 0-34.134-15.36-34.134-34.134v-580.266c0-18.774 15.36-34.134 34.134-34.134h887.466c18.774 0 34.134 15.36 34.134 34.134v580.266z",
          "M648.533 306.982h-477.867c-56.319 0-102.401 46.079-102.401 102.401v375.467c0 56.319 46.079 102.401 102.401 102.401h477.865c56.319 0 102.401-46.079 102.401-102.401v-375.469c0-56.319-46.079-102.399-102.399-102.399zM716.8 784.848c0 37.548-30.72 68.267-68.267 68.267h-477.867c-37.548 0-68.267-30.72-68.267-68.267v-375.467c0-37.548 30.72-68.267 68.267-68.267h477.865c37.548 0 68.267 30.72 68.267 68.267v375.467z",
          "M938.665 392.315h-136.534c-10.24 0-17.066 6.826-17.066 17.066s6.826 17.066 17.066 17.066h136.534c10.24 0 17.066-6.826 17.066-17.066s-6.826-17.066-17.066-17.066z",
          "M938.665 460.582h-136.534c-10.24 0-17.066 6.826-17.066 17.066s6.826 17.066 17.066 17.066h136.534c10.24 0 17.066-6.826 17.066-17.066s-6.826-17.066-17.066-17.066z",
          "M938.665 528.847h-136.534c-10.24 0-17.066 6.826-17.066 17.066s6.826 17.066 17.066 17.066h136.534c10.24 0 17.066-6.826 17.066-17.066s-6.826-17.066-17.066-17.066z",
          "M938.665 597.114h-136.534c-10.24 0-17.066 6.826-17.066 17.066v136.534c0 10.24 6.826 17.066 17.066 17.066h136.534c10.24 0 17.066-6.826 17.066-17.066v-136.534c0.002-10.238-6.826-17.066-17.066-17.066zM921.599 733.648h-102.401v-102.401h102.401v102.401z",
          "M209.919 380.367l-68.265 68.267c-6.826 6.826-6.826 17.066 0 23.894 3.414 3.414 6.826 5.12 11.946 5.12s8.534-1.706 11.946-5.12l68.267-68.267c6.826-6.826 6.826-17.066 0-23.894-6.826-6.826-17.066-6.826-23.894 0z",
          "M158.72 516.901l-17.066 17.066c-6.826 6.826-6.826 17.066 0 23.894 3.414 3.414 6.826 5.12 11.946 5.12s8.534-1.706 11.946-5.12l17.066-17.066c6.826-6.826 6.826-17.066 0-23.894-6.826-6.826-17.066-6.826-23.892 0z",
          "M312.32 363.301l-51.199 51.199c-6.826 6.826-6.826 17.066 0 23.894 3.414 3.414 6.826 5.12 11.946 5.12s8.534-1.706 11.946-5.12l51.199-51.199c6.826-6.826 6.826-17.066 0-23.894s-17.066-6.826-23.892 0z",
          "M221.867 460.582c-10.24 0-17.066 6.826-17.066 17.066s6.826 17.066 17.066 17.066 17.066-6.826 17.066-17.066-6.826-17.066-17.066-17.066z"
        ],
        "attrs": [
          {},
          {},
          {},
          {},
          {},
          {},
          {},
          {},
          {},
          {}
        ],
        "isMulticolor": false,
        "isMulticolor2": false,
        "grid": 0,
        "tags": [
          "television"
        ]
      },
      "attrs": [
        {},
        {},
        {},
        {},
        {},
        {},
        {},
        {},
        {},
        {}
      ],
      "properties": {
        "order": 33,
        "id": 5,
        "name": "television",
        "prevSize": 32,
        "code": 59664
      },
      "setIdx": 1,
      "setId": 1,
      "iconIdx": 8
    },
    {
      "icon": {
        "paths": [
          "M511.225 918.41c-230.357 0-417.064-159.007-417.064-355.241 0-196.215 186.707-355.271 417.064-355.271 230.246 0 417.009 159.023 417.009 355.271s-186.763 355.241-417.009 355.241v0zM1023.045 72.003c6.7-34.884-23.762-27.479-33.153-24.437l-2.819 0.964-0.077 0.016-295.304 99.814c-23.073 7.812-48.619 2.598-48.619 2.598s0.063 0.291 0.063 0.32c-40.574-10.033-83.073-15.817-127.279-15.817-48.424 0-94.875 7.020-138.925 18.988-0.399 0.071-0.596-0.188-0.947-0.079-10.183 2.677-27.746 0-27.746 0v0l-320.92-108.532c-30.454-10.292-27.22 22.127-27.22 22.127v0l69.837 293.024c0 0 4.414 33.694-3.765 56.166-0.241 0.596 0.063 0.979-0.109 1.526-17.217 43.626-27.088 90.312-27.088 139.121 0 233.251 213.521 422.378 476.9 422.378 263.464 0 476.93-189.125 476.93-422.378 0-45.427-8.765-88.92-23.809-129.909-0.188-0.673-0.063-1.198-0.298-1.903-6.466-18.885-2.365-60.595-2.365-60.595l56.713-293.393z"
        ],
        "attrs": [
          {}
        ],
        "isMulticolor": false,
        "isMulticolor2": false,
        "grid": 0,
        "tags": [
          "cat"
        ]
      },
      "attrs": [
        {}
      ],
      "properties": {
        "order": 34,
        "id": 4,
        "name": "cat",
        "prevSize": 32,
        "code": 59665
      },
      "setIdx": 1,
      "setId": 1,
      "iconIdx": 9
    },
    {
      "icon": {
        "paths": [
          "M364.221 537.597c10.407 0 17.344-6.937 17.344-17.344 0-79.783 36.423-138.752 86.72-138.752h86.72c6.937 0 13.874-5.202 15.609-12.142 3.47-6.937 0-13.874-5.202-19.079-13.874-10.407-27.751-46.83-27.751-72.843 0-46.83 48.562-52.032 69.376-52.032 10.407 0 17.344-6.937 17.344-17.344s-6.937-17.344-17.344-17.344c-62.439 0-104.064 32.953-104.064 86.72 0 22.546 6.937 48.562 17.344 69.376h-52.032c-71.111 0-121.408 72.843-121.408 173.44 0 10.407 6.939 17.344 17.344 17.344z",
          "M652.132 171.641c22.546 10.407 41.625 41.625 41.625 71.111 0 38.158-31.218 69.376-69.376 69.376-8.672 0-17.344 5.202-17.344 13.874s3.47 15.609 12.142 19.079c12.142 5.202 22.546 20.814 22.546 36.423 0 19.079-15.609 34.688-34.688 34.688h-104.064c-43.36 0-86.72 32.953-86.72 104.064 0 10.407 6.937 17.344 17.344 17.344s17.344-6.937 17.344-17.344c0-43.36 19.079-69.376 52.032-69.376h104.064c38.158 0 69.376-31.218 69.376-69.376 0-13.874-5.202-29.486-13.874-41.625 38.158-15.609 65.906-53.767 65.906-97.127s-26.016-86.72-62.439-102.329c-8.672-3.47-19.079 0-22.546 8.672s0 19.077 8.672 22.546z",
          "M1022.837 463.932c-0.256-1.633-0.652-3.124-1.281-4.383l-24.739-46.828-22.089-43.36c-0.692-1.383-1.671-2.76-2.914-4.033-4.257-6.935-13.515-9.35-21.367-4.639l-478.788 246.283h-142.123c-10.407 0-17.344 6.937-17.344 17.344v53.767c0 20.814-34.688 20.814-34.688 0v-55.502c0-10.407-6.937-17.344-17.344-17.344h-69.376v-50.297c0-27.751-22.546-52.032-52.032-52.032h-69.376c-10.407 0-17.344 6.937-17.344 17.344v84.985h-1.735c-29.484 5.202-50.297 27.751-50.297 55.5v173.44c0 15.609 6.937 29.486 17.344 38.158 8.672 8.672 19.079 12.142 29.486 12.142 3.47 0 5.202 0 6.937 0h690.287c13.874 1.735 26.016-1.735 36.423-10.407s17.344-22.546 17.344-38.158v-173.44c0-22.135-14.352-42.051-34.242-50.971l251.042-127.671c7.803-3.122 11.37-11.86 8.216-19.898zM950.447 398.845l31.218 62.439-154.361 79.783-31.194-62.391 154.337-79.831zM765.211 494.657l31.668 62.163-97.918 50.153h-150.891l217.141-112.316zM86.72 537.597h52.032c8.672 0 17.344 6.937 17.344 17.344v50.297h-69.376v-67.641zM53.767 641.661h189.049v36.423c0 27.751 22.546 48.562 52.032 48.562s52.032-20.814 52.032-48.562v-38.158h397.177c10.407 3.47 19.079 10.407 19.079 20.814v119.673h-728.447v-117.938c0-10.409 8.672-19.081 19.079-20.814zM757.928 846.319c-3.47 1.735-5.202 3.47-10.407 3.47h-697.225c-5.202 0-8.672-1.735-10.407-1.735-3.47-3.47-5.202-6.937-5.202-12.142v-20.814h728.445v19.079c0 5.202-1.735 8.672-5.204 12.142z"
        ],
        "attrs": [
          {},
          {},
          {}
        ],
        "isMulticolor": false,
        "isMulticolor2": false,
        "grid": 0,
        "tags": [
          "smoking"
        ]
      },
      "attrs": [
        {},
        {},
        {}
      ],
      "properties": {
        "order": 35,
        "id": 3,
        "name": "smoking",
        "prevSize": 32,
        "code": 59666
      },
      "setIdx": 1,
      "setId": 1,
      "iconIdx": 10
    },
    {
      "icon": {
        "paths": [
          "M1020.96 264.943c-0.412-3.666-0.906-7.31-1.453-10.94-0.014-0.098-0.028-0.198-0.044-0.296-0.526-3.468-1.117-6.916-1.763-10.346-0.074-0.39-0.148-0.78-0.222-1.169-0.612-3.178-1.267-6.343-1.981-9.487-0.186-0.828-0.39-1.651-0.584-2.477-0.506-2.143-1.035-4.276-1.587-6.401-0.588-2.275-1.209-4.536-1.849-6.792-0.258-0.904-0.514-1.807-0.78-2.707-8.062-27.431-20.033-53.413-35.723-77.568-0.334-0.516-0.672-1.029-1.009-1.543-1.483-2.255-2.996-4.496-4.546-6.716-0.973-1.401-1.957-2.792-2.952-4.176-0.754-1.043-1.501-2.089-2.269-3.124-1.629-2.203-3.296-4.376-4.983-6.532-0.656-0.838-1.313-1.673-1.979-2.505-1.699-2.123-3.422-4.226-5.175-6.301-0.352-0.416-0.682-0.846-1.035-1.261-0.066-0.066-0.138-0.12-0.204-0.184-47.562-55.56-114.978-93.627-190.839-102.161-42.643-5.117-85.288-1.705-126.226 11.94-185.927 59.704-351.386 88.702-510.020 88.702h-20.469c-56.29 0-102.345 46.055-102.345 102.345v204.689c0 56.29 46.055 102.345 102.345 102.345h90.405c107.2 0 219.539 14.386 339.398 43.934l-97.181 259.688c-28.998 78.464 11.94 168.869 90.405 197.867 18.764 6.822 35.821 10.234 54.584 10.234 61.407 0 121.108-37.526 141.577-98.932l135.593-358.234c33.596-16.599 64.041-39.583 89.566-68.201 56.286-64.821 83.579-146.697 73.344-233.69zM988.549 270.060c6.822 66.524-10.234 133.048-49.467 185.925-39.233-52.877-56.29-119.401-49.467-185.925 5.117-46.055 22.174-88.698 49.467-126.226 27.293 35.823 44.35 80.171 49.467 126.226zM103.268 478.161c-37.526 0-68.229-30.703-68.229-68.229v-204.689c0-37.526 30.703-68.229 68.229-68.229h20.469c5.117 0 10.234 0 13.647 0v341.147h-34.116zM631.592 583.406c2.427 0.74 4.847 1.465 7.28 2.217 28.998 8.529 57.995 11.94 86.993 11.94 3.228 0 6.445-0.068 9.655-0.17l-38.653 102.515c-10.234 25.586-40.938 40.938-66.524 30.703-15.352-5.117-25.586-17.057-30.703-32.408-3.412-10.234-3.412-23.881 1.705-35.821l30.248-78.975zM693.457 911.421c-22.174 61.407-92.11 93.815-153.517 69.936-61.407-22.174-93.815-92.11-69.936-153.517l98.833-262.416c10.117 2.715 20.289 5.535 30.515 8.461l-28.708 76.557c-8.529 20.469-8.529 40.938-3.412 57.995 6.822 25.586 25.586 46.055 51.172 54.584 10.234 3.412 20.469 5.117 30.703 5.117 35.821 0 68.229-22.174 80.171-54.584l45.805-120.041c14.472-2.395 28.674-5.831 42.505-10.276l-124.131 328.184zM844.137 536.096c-2.411-0.038-4.905 0.52-7.4 1.767-23.385 11.136-47.502 18.612-72.343 22.478-1.385-0.2-2.85-0.304-4.416-0.304-13.647 1.705-23.881 1.705-34.116 1.705-27.291 0-52.877-5.117-76.758-11.94-3.412 0-8.529-1.705-13.647-3.412l-6.758-1.351c-156.751-45.070-299.786-66.878-435.027-66.878h-22.174v-341.993c147.804-5.143 303.36-34.156 474.197-89.562 35.821-11.94 73.346-15.352 112.579-10.234 61.197 6.994 116.563 36.398 158.072 79.473-33.82 43.604-54.568 94.175-60.845 149.097-9.701 79.215 12.795 156.887 61.639 218.516-21.52 21.702-46.227 39.433-73.005 52.638z",
          "M802.624 273.472h-204.689c-10.234 0-17.057 6.822-17.057 17.057s6.822 17.057 17.057 17.057h204.689c10.234 0 17.057-6.822 17.057-17.057 0.002-10.234-6.822-17.057-17.057-17.057z",
          "M768.508 358.76h-136.46c-10.234 0-17.057 6.822-17.057 17.057s6.822 17.057 17.057 17.057h136.46c10.234 0 17.057-6.822 17.057-17.057s-6.822-17.057-17.057-17.057z",
          "M632.050 222.3h136.46c10.234 0 17.057-6.822 17.057-17.057s-6.822-17.057-17.057-17.057h-136.46c-10.234 0-17.057 6.822-17.057 17.057s6.822 17.057 17.057 17.057z"
        ],
        "attrs": [
          {},
          {},
          {},
          {}
        ],
        "isMulticolor": false,
        "isMulticolor2": false,
        "grid": 0,
        "tags": [
          "hairdryer"
        ]
      },
      "attrs": [
        {},
        {},
        {},
        {}
      ],
      "properties": {
        "order": 36,
        "id": 2,
        "name": "hairdryer",
        "prevSize": 32,
        "code": 59667
      },
      "setIdx": 1,
      "setId": 1,
      "iconIdx": 11
    },
    {
      "icon": {
        "paths": [
          "M512 648.534c-37.546 0-68.266 30.72-68.266 68.266s30.72 68.266 68.266 68.266c37.546 0 68.266-30.72 68.266-68.266s-30.72-68.266-68.266-68.266zM512 750.934c-18.774 0-34.134-15.36-34.134-34.134s15.36-34.134 34.134-34.134 34.134 15.36 34.134 34.134-15.36 34.134-34.134 34.134z",
          "M513.706 513.706c-54.614 0-105.814 20.48-145.066 59.734-3.414 3.414-5.12 6.826-5.12 11.946s1.706 8.534 5.12 11.946l47.786 47.786c3.414 3.414 6.826 5.12 11.946 5.12 3.414 0 8.534-3.414 11.946-5.12 18.774-20.48 44.374-30.72 71.68-30.72s52.906 10.24 75.094 30.72c6.826 6.826 17.066 6.826 23.894 0l47.786-47.786c3.414-3.414 5.12-6.826 5.12-11.946s-1.706-8.534-5.12-11.946c-39.252-39.254-90.452-59.734-145.066-59.734zM595.626 609.28c-23.894-18.774-52.906-29.014-83.626-29.014s-59.734 10.24-83.626 29.014l-23.894-23.894c30.72-25.6 68.266-39.254 107.52-39.254s76.8 13.654 107.52 39.254l-23.894 23.894z",
          "M512 375.466c-90.454 0-175.786 35.84-240.64 100.694-6.826 6.826-6.826 17.066 0 23.894l47.786 47.786c3.414 3.414 6.826 5.12 11.946 5.12s8.534-1.706 11.946-5.12c46.080-44.374 105.814-69.974 168.96-69.974s124.586 25.6 168.96 69.974c3.414 3.414 6.826 5.12 11.946 5.12s8.534-1.706 11.946-5.12l47.786-47.786c6.826-6.826 6.826-17.066 0-23.894-63.142-64.854-150.182-100.694-240.636-100.694zM692.906 512c-49.494-44.374-114.346-68.266-180.906-68.266s-129.706 23.894-180.906 68.266l-23.894-23.894c56.32-51.2 128-78.506 204.8-78.506s148.48 27.306 204.8 78.506l-23.894 23.894z",
          "M849.92 378.88c-90.454-90.454-209.92-139.946-337.92-139.946s-247.466 49.494-336.214 141.654c-6.826 6.826-6.826 17.066 0 23.894l47.786 47.786c6.826 6.826 17.066 6.826 23.894 0 69.974-71.68 163.84-110.934 264.534-110.934s194.56 39.254 266.24 109.226c3.414 3.414 6.826 5.12 11.946 5.12 3.414 0 8.534-1.706 11.946-3.414l47.786-49.494c6.828-6.826 6.828-17.066 0.002-23.892zM788.48 414.72c-75.094-69.974-172.374-107.52-276.48-107.52s-201.386 37.546-278.186 107.52l-23.894-23.894c83.626-75.094 189.44-117.76 302.080-117.76s218.454 42.666 300.374 117.76l-23.894 23.894z",
          "M512 0c-281.6 0-512 230.4-512 512s230.4 512 512 512 512-230.4 512-512-230.4-512-512-512zM512 989.866c-262.826 0-477.866-215.040-477.866-477.866s215.040-477.866 477.866-477.866 477.866 215.040 477.866 477.866-215.040 477.866-477.866 477.866z"
        ],
        "attrs": [
          {},
          {},
          {},
          {},
          {}
        ],
        "isMulticolor": false,
        "isMulticolor2": false,
        "grid": 0,
        "tags": [
          "wifi"
        ]
      },
      "attrs": [
        {},
        {},
        {},
        {},
        {}
      ],
      "properties": {
        "order": 37,
        "id": 1,
        "name": "wifi",
        "prevSize": 32,
        "code": 59668
      },
      "setIdx": 1,
      "setId": 1,
      "iconIdx": 12
    },
    {
      "icon": {
        "paths": [
          "M520.678 347.154c-112.814 0-208.271 95.457-208.271 208.271s95.457 208.271 208.271 208.271 208.271-95.457 208.271-208.271-95.457-208.271-208.271-208.271zM520.678 728.983c-93.722 0-173.559-79.837-173.559-173.559s79.837-173.559 173.559-173.559c93.722 0 173.559 79.837 173.559 173.559s-79.837 173.559-173.559 173.559z",
          "M989.287 495.386v-391.216c0-6.942-3.472-12.148-10.414-15.62s-13.885-1.735-19.092 3.472c-48.596 48.596-74.63 112.814-74.63 180.502v104.136c0 39.919 8.679 79.837 26.034 114.549l3.927 7.202c-18.067 12.567-29.961 33.464-29.961 57.016v312.407c0 38.182 31.241 69.423 69.423 69.423s69.423-31.241 69.423-69.423v-312.407c0.002-25.56-14.005-47.99-34.71-60.041zM947.633 486.002l-5.207-10.414c-13.885-31.241-22.562-64.216-22.562-98.929v-105.87c0-41.654 12.148-83.308 34.713-118.021v333.234h-6.944zM989.287 867.831c0 19.092-15.62 34.713-34.713 34.713s-34.713-15.62-34.713-34.713v-312.407c0-19.092 15.62-34.713 34.713-34.713s34.713 15.62 34.713 34.713v312.407z",
          "M156.203 104.17c-10.414 0-17.355 6.942-17.355 17.355v190.916c0 23.372-14.162 42.372-34.713 49.269v-240.183c0-10.414-6.942-17.355-17.355-17.355s-17.355 6.942-17.355 17.355v240.185c-20.548-6.897-34.713-25.9-34.713-49.269v-190.916c0-10.414-6.942-17.355-17.355-17.355s-17.357 6.942-17.357 17.355v190.916c0 42.637 29.394 77.249 69.423 85.1v90.671c-29.856 7.757-52.068 35.016-52.068 67.212v312.407c0 38.182 31.241 69.423 69.423 69.423s69.423-31.241 69.423-69.423v-312.407c0-32.195-22.212-59.455-52.068-67.212v-90.671c40.029-7.851 69.423-42.464 69.423-85.1v-190.916c0.002-10.414-6.94-17.357-17.353-17.357zM121.491 555.425v312.407c0 19.092-15.62 34.713-34.713 34.713s-34.71-15.62-34.71-34.713v-312.407c0-19.092 15.62-34.713 34.713-34.713s34.71 15.62 34.71 34.713z",
          "M69.423 624.848c0 10.414 6.942 17.355 17.355 17.355s17.355-6.942 17.355-17.355-6.942-17.355-17.355-17.355-17.355 6.942-17.355 17.355z",
          "M954.575 607.492c-10.414 0-17.355 6.942-17.355 17.355s6.942 17.355 17.355 17.355 17.355-6.942 17.355-17.355-6.942-17.355-17.355-17.355z",
          "M520.678 225.663c-182.237 0-329.762 147.525-329.762 329.762s147.525 329.762 329.762 329.762 329.762-147.525 329.762-329.762-147.525-329.762-329.762-329.762zM520.678 850.476c-163.145 0-295.051-131.904-295.051-295.051s131.906-295.051 295.051-295.051 295.051 131.904 295.051 295.051-131.906 295.051-295.051 295.051z"
        ],
        "attrs": [
          {},
          {},
          {},
          {},
          {},
          {}
        ],
        "isMulticolor": false,
        "isMulticolor2": false,
        "grid": 0,
        "tags": [
          "restaurant"
        ]
      },
      "attrs": [
        {},
        {},
        {},
        {},
        {},
        {}
      ],
      "properties": {
        "order": 38,
        "id": 0,
        "name": "restaurant",
        "prevSize": 32,
        "code": 59669
      },
      "setIdx": 1,
      "setId": 1,
      "iconIdx": 13
    },
    {
      "icon": {
        "paths": [
          "M387.717 16.046c-5.806 5.571-5.806 5.571-5.806 55.050v49.715l-16.026 2.324c-44.37 6.973-80.609 39.956-91.986 83.395-3.021 12.083-3.482 61.092-3.482 404.89v390.953l5.806 5.581 5.571 5.806h460.411l5.571-5.806 5.806-5.581v-390.953c0-343.798-0.461-392.817-3.482-404.89-11.387-43.438-47.616-76.421-91.986-83.395l-16.026-2.324v-49.715c0-49.48 0-49.48-5.806-55.050l-5.581-5.806h-237.404l-5.581 5.806zM456.253 84.572v37.171h-37.171v-74.342h37.171v37.171zM530.586 84.572v37.171h-37.171v-74.342h37.171v37.171zM604.918 84.572v37.171h-37.171v-74.342h37.171v37.171zM664.852 162.621c17.654 5.806 32.522 18.35 42.045 35.779l8.366 15.104 0.696 381.43 0.461 381.665h-408.842l0.461-381.665 0.696-381.43 5.806-11.612c9.984-19.978 29.041-35.779 49.94-40.888 3.953-0.932 70.39-1.628 147.743-1.853 123.822-0.246 142.408 0.225 152.627 3.471z",
          "M387.717 276.224l-5.806 5.571v571.914l5.806 5.581 5.571 5.806h237.414l5.581-5.806 5.806-5.581v-571.904l-5.806-5.571-5.581-5.806h-237.404l-5.581 5.796zM604.918 567.747v260.168h-185.836v-520.335h185.836v260.168z"
        ],
        "attrs": [
          {},
          {}
        ],
        "isMulticolor": false,
        "isMulticolor2": false,
        "grid": 0,
        "tags": [
          "shampoo"
        ]
      },
      "attrs": [
        {},
        {}
      ],
      "properties": {
        "order": 22,
        "id": 1,
        "name": "shampoo",
        "prevSize": 32,
        "code": 59648
      },
      "setIdx": 1,
      "setId": 1,
      "iconIdx": 14
    },
    {
      "icon": {
        "paths": [
          "M739.328 119.603h-473.395c-41.677 0-78.131 22.63-97.894 56.218h49.050c13.21-11.264 30.106-18.33 48.845-18.33 41.779 0 75.776 33.997 75.776 75.776v652.186c0 10.445 8.499 18.944 18.944 18.944h473.395c10.445 0 18.944-8.499 18.944-18.944v-652.186c-0.102-62.669-51.098-113.664-113.664-113.664zM739.328 157.491c41.779 0 75.776 33.997 75.776 75.776v420.25h-435.61v-420.25c0-29.082-11.162-55.603-29.184-75.776h389.018zM379.494 674.714h435.507v37.888h-435.507v-37.888zM379.494 866.509v-56.832h435.507v56.832h-435.507z",
          "M265.933 544.973h-75.776v-254.362h-37.888v273.306c0 10.445 8.499 18.944 18.944 18.944h94.618c10.445 0 18.944-8.499 18.944-18.944 0.102-10.547-8.397-18.944-18.842-18.944z",
          "M964.608 184.115c-16.486 0-31.027 8.192-39.936 20.685h-56.013c2.048 9.216 3.174 18.637 3.174 28.365v28.365h52.838c8.909 12.493 23.45 20.685 39.936 20.685 27.136 0 49.152-22.016 49.152-49.152 0-26.931-22.016-48.947-49.152-48.947z",
          "M99.328 204.8c-8.909-12.493-23.45-20.685-39.936-20.685-27.136 0-49.152 22.016-49.152 49.152s22.016 49.152 49.152 49.152c16.486 0 31.027-8.192 39.936-20.685h223.437v-28.467c0-10.342-2.97-19.968-7.885-28.365h-215.552z"
        ],
        "attrs": [
          {},
          {},
          {},
          {}
        ],
        "isMulticolor": false,
        "isMulticolor2": false,
        "grid": 0,
        "tags": [
          "towel"
        ]
      },
      "attrs": [
        {},
        {},
        {},
        {}
      ],
      "properties": {
        "order": 23,
        "id": 0,
        "name": "towel",
        "prevSize": 32,
        "code": 59649
      },
      "setIdx": 1,
      "setId": 1,
      "iconIdx": 15
    },
    {
      "icon": {
        "paths": [
          "M896 256v-128h-896v704c0 35.346 28.654 64 64 64h864c53.022 0 96-42.978 96-96v-544h-128zM832 832h-768v-640h768v640zM128 320h640v64h-640zM512 448h256v64h-256zM512 576h256v64h-256zM512 704h192v64h-192zM128 448h320v320h-320z"
        ],
        "tags": [
          "newspaper",
          "news",
          "paper"
        ],
        "defaultCode": 59652,
        "grid": 16,
        "attrs": []
      },
      "attrs": [],
      "properties": {
        "ligatures": "newspaper, news",
        "name": "newspaper",
        "order": 8,
        "id": 5,
        "prevSize": 32,
        "code": 59655
      },
      "setIdx": 1,
      "setId": 1,
      "iconIdx": 21
    },
    {
      "icon": {
        "width": 1280,
        "paths": [
          "M640 576c105.87 0 201.87 43.066 271.402 112.598l-90.468 90.468c-46.354-46.356-110.356-75.066-180.934-75.066s-134.578 28.71-180.934 75.066l-90.468-90.468c69.532-69.532 165.532-112.598 271.402-112.598zM187.452 507.452c120.88-120.88 281.598-187.452 452.548-187.452s331.668 66.572 452.55 187.452l-90.51 90.508c-96.706-96.704-225.28-149.96-362.040-149.96-136.762 0-265.334 53.256-362.038 149.962l-90.51-90.51zM988.784 134.438c106.702 45.132 202.516 109.728 284.782 191.996v0l-90.508 90.508c-145.056-145.056-337.92-224.942-543.058-224.942-205.14 0-398 79.886-543.058 224.942l-90.51-90.51c82.268-82.266 178.082-146.862 284.784-191.994 110.504-46.738 227.852-70.438 348.784-70.438s238.278 23.7 348.784 70.438zM576 896c0-35.346 28.654-64 64-64s64 28.654 64 64c0 35.346-28.654 64-64 64s-64-28.654-64-64z"
        ],
        "tags": [
          "connection",
          "wifi",
          "wave"
        ],
        "defaultCode": 59675,
        "grid": 16,
        "attrs": []
      },
      "attrs": [],
      "properties": {
        "ligatures": "connection, wifi",
        "name": "connection",
        "order": 24,
        "id": 28,
        "prevSize": 32,
        "code": 59675
      },
      "setIdx": 1,
      "setId": 1,
      "iconIdx": 22
    },
    {
      "icon": {
        "paths": [
          "M704 640c-64 64-64 128-128 128s-128-64-192-128-128-128-128-192 64-64 128-128-128-256-192-256-192 192-192 192c0 128 131.5 387.5 256 512s384 256 512 256c0 0 192-128 192-192s-192-256-256-192z"
        ],
        "tags": [
          "phone",
          "telephone",
          "contact",
          "support",
          "call"
        ],
        "defaultCode": 59714,
        "grid": 16,
        "attrs": []
      },
      "attrs": [],
      "properties": {
        "ligatures": "phone, telephone",
        "name": "phone",
        "order": 17,
        "id": 67,
        "prevSize": 32,
        "code": 59714
      },
      "setIdx": 1,
      "setId": 1,
      "iconIdx": 23
    },
    {
      "icon": {
        "paths": [
          "M928 128h-832c-52.8 0-96 43.2-96 96v640c0 52.8 43.2 96 96 96h832c52.8 0 96-43.2 96-96v-640c0-52.8-43.2-96-96-96zM398.74 550.372l-270.74 210.892v-501.642l270.74 290.75zM176.38 256h671.24l-335.62 252-335.62-252zM409.288 561.698l102.712 110.302 102.71-110.302 210.554 270.302h-626.528l210.552-270.302zM625.26 550.372l270.74-290.75v501.642l-270.74-210.892z"
        ],
        "tags": [
          "envelop",
          "mail",
          "email",
          "contact",
          "letter"
        ],
        "defaultCode": 59717,
        "grid": 16,
        "attrs": []
      },
      "attrs": [],
      "properties": {
        "ligatures": "envelop, mail",
        "name": "envelop",
        "order": 6,
        "id": 70,
        "prevSize": 32,
        "code": 59717
      },
      "setIdx": 1,
      "setId": 1,
      "iconIdx": 24
    },
    {
      "icon": {
        "paths": [
          "M981.188 288.108c-88.808-12.768-183.382-22.016-282.076-27.22l164.888-164.888-64-64-224.558 224.556c-21.006-0.368-42.156-0.556-63.442-0.556v0l-256-256-64 64 194.196 194.196c-120.922 4.242-236.338 14.524-343.386 29.912-27.532 107.726-42.81 226.752-42.81 351.892s15.278 244.166 42.804 351.89c143.642 20.652 302.34 32.11 469.196 32.11s325.55-11.458 469.188-32.11c27.534-107.724 42.812-226.75 42.812-351.89s-15.278-244.166-42.812-351.892zM863.892 874.594c-107.73 13.766-226.75 21.406-351.892 21.406s-244.166-7.64-351.892-21.406c-20.648-71.816-32.108-151.166-32.108-234.594 0-83.43 11.458-162.78 32.108-234.596 107.726-13.766 226.75-21.404 351.892-21.404 125.136 0 244.162 7.638 351.886 21.404 20.656 71.816 32.114 151.166 32.114 234.596 0 83.428-11.458 162.778-32.108 234.594z"
        ],
        "tags": [
          "tv",
          "television",
          "show"
        ],
        "defaultCode": 59739,
        "grid": 16,
        "attrs": []
      },
      "attrs": [],
      "properties": {
        "ligatures": "tv, television",
        "name": "tv",
        "order": 20,
        "id": 92,
        "prevSize": 32,
        "code": 59739
      },
      "setIdx": 1,
      "setId": 1,
      "iconIdx": 25
    },
    {
      "icon": {
        "paths": [
          "M576 706.612v-52.78c70.498-39.728 128-138.772 128-237.832 0-159.058 0-288-192-288s-192 128.942-192 288c0 99.060 57.502 198.104 128 237.832v52.78c-217.102 17.748-384 124.42-384 253.388h896c0-128.968-166.898-235.64-384-253.388z"
        ],
        "tags": [
          "user",
          "profile",
          "avatar",
          "person",
          "member"
        ],
        "defaultCode": 59761,
        "grid": 16,
        "attrs": []
      },
      "attrs": [],
      "properties": {
        "ligatures": "user, profile2",
        "name": "user",
        "order": 5,
        "id": 114,
        "prevSize": 32,
        "code": 59761
      },
      "setIdx": 1,
      "setId": 1,
      "iconIdx": 26
    },
    {
      "icon": {
        "paths": [
          "M480 64c-265.096 0-480 214.904-480 480 0 265.098 214.904 480 480 480 265.098 0 480-214.902 480-480 0-265.096-214.902-480-480-480zM751.59 704c8.58-40.454 13.996-83.392 15.758-128h127.446c-3.336 44.196-13.624 87.114-30.68 128h-112.524zM208.41 384c-8.58 40.454-13.996 83.392-15.758 128h-127.444c3.336-44.194 13.622-87.114 30.678-128h112.524zM686.036 384c9.614 40.962 15.398 83.854 17.28 128h-191.316v-128h174.036zM512 320v-187.338c14.59 4.246 29.044 11.37 43.228 21.37 26.582 18.74 52.012 47.608 73.54 83.486 14.882 24.802 27.752 52.416 38.496 82.484h-155.264zM331.232 237.516c21.528-35.878 46.956-64.748 73.54-83.486 14.182-10 28.638-17.124 43.228-21.37v187.34h-155.264c10.746-30.066 23.616-57.68 38.496-82.484zM448 384v128h-191.314c1.88-44.146 7.666-87.038 17.278-128h174.036zM95.888 704c-17.056-40.886-27.342-83.804-30.678-128h127.444c1.762 44.608 7.178 87.546 15.758 128h-112.524zM256.686 576h191.314v128h-174.036c-9.612-40.96-15.398-83.854-17.278-128zM448 768v187.34c-14.588-4.246-29.044-11.372-43.228-21.37-26.584-18.74-52.014-47.61-73.54-83.486-14.882-24.804-27.75-52.418-38.498-82.484h155.266zM628.768 850.484c-21.528 35.876-46.958 64.746-73.54 83.486-14.184 9.998-28.638 17.124-43.228 21.37v-187.34h155.266c-10.746 30.066-23.616 57.68-38.498 82.484zM512 704v-128h191.314c-1.88 44.146-7.666 87.040-17.28 128h-174.034zM767.348 512c-1.762-44.608-7.178-87.546-15.758-128h112.524c17.056 40.886 27.344 83.806 30.68 128h-127.446zM830.658 320h-95.9c-18.638-58.762-44.376-110.294-75.316-151.428 42.536 20.34 81.058 47.616 114.714 81.272 21.48 21.478 40.362 44.938 56.502 70.156zM185.844 249.844c33.658-33.658 72.18-60.932 114.714-81.272-30.942 41.134-56.676 92.666-75.316 151.428h-95.898c16.138-25.218 35.022-48.678 56.5-70.156zM129.344 768h95.898c18.64 58.762 44.376 110.294 75.318 151.43-42.536-20.34-81.058-47.616-114.714-81.274-21.48-21.478-40.364-44.938-56.502-70.156zM774.156 838.156c-33.656 33.658-72.18 60.934-114.714 81.274 30.942-41.134 56.678-92.668 75.316-151.43h95.9c-16.14 25.218-35.022 48.678-56.502 70.156z"
        ],
        "tags": [
          "sphere",
          "globe",
          "internet"
        ],
        "defaultCode": 59849,
        "grid": 16,
        "attrs": []
      },
      "attrs": [],
      "properties": {
        "ligatures": "sphere, globe",
        "name": "sphere",
        "order": 18,
        "id": 202,
        "prevSize": 32,
        "code": 59849
      },
      "setIdx": 1,
      "setId": 1,
      "iconIdx": 27
    },
    {
      "icon": {
        "paths": [
          "M755.188 64c-107.63 0-200.258 87.554-243.164 179-42.938-91.444-135.578-179-243.216-179-148.382 0-268.808 120.44-268.808 268.832 0 301.846 304.5 380.994 512.022 679.418 196.154-296.576 511.978-387.206 511.978-679.418 0-148.392-120.43-268.832-268.812-268.832z"
        ],
        "tags": [
          "heart",
          "like",
          "love",
          "favorite"
        ],
        "defaultCode": 59866,
        "grid": 16,
        "attrs": []
      },
      "attrs": [],
      "properties": {
        "ligatures": "heart, like",
        "name": "heart",
        "order": 7,
        "id": 219,
        "prevSize": 32,
        "code": 59866
      },
      "setIdx": 1,
      "setId": 1,
      "iconIdx": 28
    },
    {
      "icon": {
        "paths": [
          "M992 384h-352v-352c0-17.672-14.328-32-32-32h-192c-17.672 0-32 14.328-32 32v352h-352c-17.672 0-32 14.328-32 32v192c0 17.672 14.328 32 32 32h352v352c0 17.672 14.328 32 32 32h192c17.672 0 32-14.328 32-32v-352h352c17.672 0 32-14.328 32-32v-192c0-17.672-14.328-32-32-32z"
        ],
        "tags": [
          "plus",
          "add",
          "sum"
        ],
        "defaultCode": 59914,
        "grid": 16,
        "attrs": []
      },
      "attrs": [],
      "properties": {
        "ligatures": "plus, add",
        "name": "plus",
        "order": 21,
        "id": 267,
        "prevSize": 32,
        "code": 59914
      },
      "setIdx": 1,
      "setId": 1,
      "iconIdx": 29
    },
    {
      "icon": {
        "paths": [
          "M522.2 438.8v175.6h290.4c-11.8 75.4-87.8 220.8-290.4 220.8-174.8 0-317.4-144.8-317.4-323.2s142.6-323.2 317.4-323.2c99.4 0 166 42.4 204 79l139-133.8c-89.2-83.6-204.8-134-343-134-283 0-512 229-512 512s229 512 512 512c295.4 0 491.6-207.8 491.6-500.2 0-33.6-3.6-59.2-8-84.8l-483.6-0.2z"
        ],
        "tags": [
          "google",
          "brand"
        ],
        "defaultCode": 60040,
        "grid": 16,
        "attrs": []
      },
      "attrs": [],
      "properties": {
        "name": "google",
        "ligatures": "google, brand2",
        "order": 4,
        "id": 393,
        "prevSize": 32,
        "code": 60040
      },
      "setIdx": 1,
      "setId": 1,
      "iconIdx": 30
    },
    {
      "icon": {
        "paths": [
          "M608 192h160v-192h-160c-123.514 0-224 100.486-224 224v96h-128v192h128v512h192v-512h160l32-192h-192v-96c0-17.346 14.654-32 32-32z"
        ],
        "tags": [
          "facebook",
          "brand",
          "social"
        ],
        "defaultCode": 60048,
        "grid": 16,
        "attrs": []
      },
      "attrs": [],
      "properties": {
        "ligatures": "facebook, brand10",
        "name": "facebook",
        "order": 3,
        "id": 401,
        "prevSize": 32,
        "code": 60048
      },
      "setIdx": 1,
      "setId": 1,
      "iconIdx": 31
    },
    {
      "icon": {
        "paths": [
          "M1024 226.4c-37.6 16.8-78.2 28-120.6 33 43.4-26 76.6-67.2 92.4-116.2-40.6 24-85.6 41.6-133.4 51-38.4-40.8-93-66.2-153.4-66.2-116 0-210 94-210 210 0 16.4 1.8 32.4 5.4 47.8-174.6-8.8-329.4-92.4-433-219.6-18 31-28.4 67.2-28.4 105.6 0 72.8 37 137.2 93.4 174.8-34.4-1-66.8-10.6-95.2-26.2 0 0.8 0 1.8 0 2.6 0 101.8 72.4 186.8 168.6 206-17.6 4.8-36.2 7.4-55.4 7.4-13.6 0-26.6-1.4-39.6-3.8 26.8 83.4 104.4 144.2 196.2 146-72 56.4-162.4 90-261 90-17 0-33.6-1-50.2-3 93.2 59.8 203.6 94.4 322.2 94.4 386.4 0 597.8-320.2 597.8-597.8 0-9.2-0.2-18.2-0.6-27.2 41-29.4 76.6-66.4 104.8-108.6z"
        ],
        "tags": [
          "twitter",
          "brand",
          "tweet",
          "social"
        ],
        "defaultCode": 60054,
        "grid": 16,
        "attrs": []
      },
      "attrs": [],
      "properties": {
        "ligatures": "twitter, brand16",
        "name": "twitter",
        "order": 2,
        "id": 407,
        "prevSize": 32,
        "code": 60054
      },
      "setIdx": 1,
      "setId": 1,
      "iconIdx": 32
    }
  ],
  "height": 1024,
  "metadata": {
    "name": "icomoon"
  },
  "preferences": {
    "showGlyphs": true,
    "showQuickUse": true,
    "showQuickUse2": true,
    "showSVGs": true,
    "fontPref": {
      "prefix": "icon-",
      "metadata": {
        "fontFamily": "icomoon"
      },
      "metrics": {
        "emSize": 1024,
        "baseline": 6.25,
        "whitespace": 50
      },
      "embed": false
    },
    "imagePref": {
      "prefix": "icon-",
      "png": true,
      "useClassSelector": true,
      "color": 0,
      "bgColor": 16777215,
      "classSelector": ".icon"
    },
    "historySize": 100,
    "showCodes": true,
    "gridSize": 16
  }
}